<?xml version="1.0" encoding="utf-8"?>
<!-- Generator: Adobe Illustrator 16.0.3, SVG Export Plug-In . SVG Version: 6.00 Build 0)  -->
<!DOCTYPE svg PUBLIC "-//W3C//DTD SVG 1.1//EN" "http://www.w3.org/Graphics/SVG/1.1/DTD/svg11.dtd">
<svg version="1.1" id="Icon" xmlns="http://www.w3.org/2000/svg" xmlns:xlink="http://www.w3.org/1999/xlink" x="0px" y="0px"
	 width="500px" height="500px" viewBox="0 0 500 500" enable-background="new 0 0 500 500" xml:space="preserve">
<linearGradient id="SVGID_1_" gradientUnits="userSpaceOnUse" x1="29.8286" y1="486.5322" x2="29.8286" y2="438.5322" gradientTransform="matrix(10.4167 0 0 -10.4167 -60.7083 5068.042)">
	<stop  offset="0" style="stop-color:#8A8A8A"/>
	<stop  offset="1" style="stop-color:#636363"/>
</linearGradient>
<path fill="url(#SVGID_1_)" d="M500,437.5c0,34.511-27.989,62.5-62.5,62.5h-375C27.99,500,0,472.011,0,437.5v-375
	C0,27.99,27.99,0,62.5,0h375C472.011,0,500,27.99,500,62.5V437.5z"/>
<path fill="#575757" d="M278.094,269c-5.791-2.49-11.541-3.865-17.271-4.115c-3.988-0.125-10.739-0.5-20.26-1.113
	c-9.531-0.625-17.021-1-22.5-1.115c-5.104-0.125-10.052-0.312-14.844-0.572c-4.792-0.24-9-0.865-12.604-1.865
	c-3.74-0.875-6.917-2.521-9.531-4.959c-2.615-2.416-3.917-5.937-3.917-10.551c0-4.479,1.552-8.031,4.667-10.636
	c3.114-2.604,6.094-4.417,8.958-5.417h22.594c17.427,0,32.708-5.604,45.843-16.802c13.137-11.208,19.699-24.896,19.699-41.083
	c0-6.219-1.115-12.573-3.354-19.052c-2.239-6.469-5.667-12.385-10.271-17.74v-1.115h43.322v-17.927h-64.24
	c-5.729-1.74-11.364-3.177-16.906-4.292c-5.542-1.114-11.115-1.687-16.708-1.687c-20.292,0-36.948,5.604-49.948,16.812
	c-13.011,11.208-19.521,25.521-19.521,42.948c0,11.583,3.292,21.76,9.896,30.531c6.594,8.781,15.864,15.969,27.823,21.573v2.802
	c-9.458,3.979-16.521,8.75-21.198,14.281c-4.667,5.542-7,11.604-7,18.208c0,5.229,1,9.614,2.989,13.167
	c1.99,3.552,4.604,6.635,7.844,9.25c2.865,2.24,6.281,4.197,10.271,5.875c3.979,1.677,7.844,3.083,11.573,4.197v2.615
	c-15.438,0.635-28.135,4.604-38.094,11.947c-9.958,7.344-14.938,17.365-14.938,30.073c0,15.688,6.917,27.594,20.729,35.761
	c13.812,8.166,34.667,12.239,62.552,12.239c17.052,0,31.375-1.625,42.959-4.864c11.583-3.24,21.531-7.781,29.875-13.636
	c7.844-5.729,13.688-12.479,17.562-20.261c3.854-7.781,5.791-16.083,5.791-24.927s-1.438-16.25-4.291-22.229
	c-2.865-5.969-6.792-11.322-11.771-16.062C289.146,274.916,283.885,271.49,278.094,269z M234.771,202.802
	c-5.792,8.656-14.042,12.979-24.74,12.979c-9.583,0-17.396-4.354-23.438-13.073c-6.042-8.708-9.052-19.979-9.052-33.802
	c0-6.094,0.531-12.042,1.583-17.833c1.052-5.792,2.823-10.739,5.323-14.844c2.615-4.479,6.011-7.938,10.177-10.364
	c4.167-2.427,9.177-3.646,15.031-3.646c10.698,0,19.01,4.333,24.927,12.979c5.906,8.656,8.875,20.261,8.875,34.823
	C243.458,183.219,240.562,194.146,234.771,202.802z M263.531,356.49c-10.521,7.041-24.938,10.551-43.229,10.551
	c-10.583,0-19.542-1.031-26.896-3.072c-7.344-2.053-13.198-4.697-17.552-7.947c-4.604-3.355-7.844-7.031-9.708-11.021
	c-1.865-3.979-2.802-8.146-2.802-12.51c0-9.709,2.833-17.637,8.5-23.803c5.656-6.166,15.219-10.562,28.667-13.178
	c14.312,0,26.896,0.312,37.719,0.938c10.833,0.637,17.99,1.188,21.48,1.678c6.594,1.615,11.51,4.666,14.76,9.156
	c3.24,4.49,4.854,10.197,4.854,17.178C279.303,338.771,274.053,349.459,263.531,356.49z"/>
<path fill="#575757" d="M350.5,169.875v36.51h14.25v-36.51h36.344v-14.01H364.75v-36.594H350.5v36.594h-36.344v14.01H350.5z"/>
<path fill="#FFFFFF" d="M278.094,283.322c-5.791-2.488-11.541-3.863-17.271-4.113c-3.988-0.125-10.739-0.5-20.26-1.115
	c-9.531-0.625-17.021-1-22.5-1.115c-5.104-0.125-10.052-0.312-14.844-0.572c-4.792-0.24-9-0.865-12.604-1.865
	c-3.74-0.875-6.917-2.52-9.531-4.957c-2.615-2.418-3.917-5.938-3.917-10.553c0-4.479,1.552-8.031,4.667-10.635
	c3.114-2.604,6.094-4.417,8.958-5.417h22.594c17.427,0,32.708-5.604,45.843-16.802c13.137-11.208,19.699-24.896,19.699-41.083
	c0-6.219-1.115-12.573-3.354-19.052c-2.239-6.469-5.667-12.385-10.271-17.739v-1.115h43.322V129.26h-64.24
	c-5.729-1.739-11.364-3.177-16.906-4.292c-5.542-1.115-11.115-1.688-16.708-1.688c-20.292,0-36.948,5.604-49.948,16.812
	c-13.011,11.208-19.521,25.521-19.521,42.948c0,11.583,3.292,21.761,9.896,30.531c6.594,8.781,15.864,15.969,27.823,21.573v2.802
	c-9.458,3.979-16.521,8.75-21.198,14.281c-4.667,5.543-7,11.605-7,18.209c0,5.229,1,9.615,2.989,13.166
	c1.99,3.553,4.604,6.637,7.844,9.25c2.865,2.24,6.281,4.199,10.271,5.875c3.979,1.678,7.844,3.084,11.573,4.199v2.613
	c-15.438,0.637-28.135,4.605-38.094,11.949c-9.958,7.344-14.938,17.363-14.938,30.072c0,15.688,6.917,27.594,20.729,35.76
	c13.812,8.168,34.667,12.24,62.552,12.24c17.052,0,31.375-1.625,42.959-4.865c11.583-3.238,21.531-7.781,29.875-13.635
	c7.844-5.729,13.688-12.479,17.562-20.26c3.854-7.781,5.791-16.084,5.791-24.928s-1.438-16.25-4.291-22.229
	c-2.865-5.969-6.792-11.324-11.771-16.062C289.146,289.24,283.885,285.812,278.094,283.322z M234.771,217.125
	c-5.792,8.656-14.042,12.979-24.74,12.979c-9.583,0-17.396-4.354-23.438-13.073c-6.042-8.708-9.052-19.979-9.052-33.802
	c0-6.094,0.531-12.042,1.583-17.833c1.052-5.792,2.823-10.74,5.323-14.844c2.615-4.479,6.011-7.938,10.177-10.365
	s9.177-3.646,15.031-3.646c10.698,0,19.01,4.333,24.927,12.979c5.906,8.656,8.875,20.26,8.875,34.823
	C243.458,197.542,240.562,208.469,234.771,217.125z M263.531,370.812c-10.521,7.041-24.938,10.553-43.229,10.553
	c-10.583,0-19.542-1.031-26.896-3.074c-7.344-2.051-13.198-4.697-17.552-7.947c-4.604-3.354-7.844-7.031-9.708-11.021
	c-1.865-3.979-2.802-8.145-2.802-12.51c0-9.709,2.833-17.635,8.5-23.803c5.656-6.166,15.219-10.562,28.667-13.176
	c14.312,0,26.896,0.312,37.719,0.938c10.833,0.635,17.99,1.188,21.48,1.676c6.594,1.615,11.51,4.668,14.76,9.156
	c3.24,4.49,4.854,10.199,4.854,17.178C279.303,353.094,274.053,363.781,263.531,370.812z"/>
<path fill="#FFFFFF" d="M350.5,184.198v36.511h14.25v-36.511h36.344v-14.01H364.75v-36.594H350.5v36.594h-36.344v14.01H350.5
	L350.5,184.198z"/>
</svg>
